…
### Wide Format
Right now, our data is considered **wide** format, that is, there are 20 rows, and separate columns for the scores of the Yankees and scores of the Mets. In some cases, we may need our data to be in a long format. In this case, there will be 40 rows instead of 20, since each Yankees score and each Mets score will represent a row, instead of each **game** representing a row.

Using the `pivot_longer` function from the `tidyverse` package, we can turn our data from wide to long.

``` r
# Lets say we want to turn out data from wide format into long format, so we can run 
baseball_data_long <- baseball_data %>% pivot_longer(cols = c(Yankees_Score, Mets_Score),
                                                    names_to = "Team",
                                                    values_to = "Score")
nrow(baseball_data_long)
#> [1] 40
baseball_data_long
#> # A tibble: 40 × 3
#>     Game Team          Score
#>    <int> <chr>         <dbl>
#>  1     1 Yankees_Score     3
#>  2     1 Mets_Score        4
#>  3     2 Yankees_Score     8
#>  4     2 Mets_Score       20
#>  5     3 Yankees_Score     2
#>  6     3 Mets_Score       12
#>  7     4 Yankees_Score     3
#>  8     4 Mets_Score        5
#>  9     5 Yankees_Score     2
#> 10     5 Mets_Score        3
#> # ℹ 30 more rows
```
…
